[
  {
    "title": "Front End Developer",
    "questions": [
      {
        "topic": "General Questions",
        "question": "What did you learn yesterday/this week?",
        "source": "https://github.com/h5bp/Front-end-Developer-Interview-Questions"
      },
      {
        "topic": "General Questions",
        "question": "What excites or interests you about coding?",
        "source": "https://github.com/h5bp/Front-end-Developer-Interview-Questions"
      },
      {
        "topic": "General Questions",
        "question": "What is a recent technical challenge you experienced and how did you solve it?",
        "source": "https://github.com/h5bp/Front-end-Developer-Interview-Questions"
      },
      {
        "topic": "General Questions",
        "question": "What UI, Security, Performance, SEO, Maintainability or Technology considerations do you make while building a web application or site?",
        "source": "https://github.com/h5bp/Front-end-Developer-Interview-Questions"
      },
      {
        "topic": "General Questions",
        "question": "Talk about your preferred development environment.",
        "source": "https://github.com/h5bp/Front-end-Developer-Interview-Questions"
      },
      {
        "topic": "General Questions",
        "question": "Which version control systems are you familiar with?",
        "source": "https://github.com/h5bp/Front-end-Developer-Interview-Questions"
      },
      {
        "topic": "General Questions",
        "question": "Can you describe your workflow when you create a web page?",
        "source": "https://github.com/h5bp/Front-end-Developer-Interview-Questions"
      },
      {
        "topic": "General Questions",
        "question": "If you have 5 different stylesheets, how would you best integrate them into the site?",
        "source": "https://github.com/h5bp/Front-end-Developer-Interview-Questions"
      },
      {
        "topic": "General Questions",
        "question": "Can you describe the difference between progressive enhancement and graceful degradation?",
        "source": "https://github.com/h5bp/Front-end-Developer-Interview-Questions"
      },
      {
        "topic": "General Questions",
        "question": "How would you optimize a website's assets/resources?",
        "source": "https://github.com/h5bp/Front-end-Developer-Interview-Questions"
      },
      {
        "topic": "General Questions",
        "question": "How many resources will a browser download from a given domain at a time?\n\n\nWhat are the exceptions?",
        "source": "https://github.com/h5bp/Front-end-Developer-Interview-Questions"
      },
      {
        "topic": "General Questions",
        "question": "What are the exceptions?",
        "source": "https://github.com/h5bp/Front-end-Developer-Interview-Questions"
      },
      {
        "topic": "General Questions",
        "question": "Name 3 ways to decrease page load (perceived or actual load time).",
        "source": "https://github.com/h5bp/Front-end-Developer-Interview-Questions"
      },
      {
        "topic": "General Questions",
        "question": "If you jumped on a project and they used tabs and you used spaces, what would you do?",
        "source": "https://github.com/h5bp/Front-end-Developer-Interview-Questions"
      },
      {
        "topic": "General Questions",
        "question": "Describe how you would create a simple slideshow page.",
        "source": "https://github.com/h5bp/Front-end-Developer-Interview-Questions"
      },
      {
        "topic": "General Questions",
        "question": "If you could master one technology this year, what would it be?",
        "source": "https://github.com/h5bp/Front-end-Developer-Interview-Questions"
      },
      {
        "topic": "General Questions",
        "question": "Explain the importance of standards and standards bodies.",
        "source": "https://github.com/h5bp/Front-end-Developer-Interview-Questions"
      },
      {
        "topic": "General Questions",
        "question": "What is Flash of Unstyled Content? How do you avoid FOUC?",
        "source": "https://github.com/h5bp/Front-end-Developer-Interview-Questions"
      },
      {
        "topic": "General Questions",
        "question": "Explain what ARIA and screenreaders are, and how to make a website accessible.",
        "source": "https://github.com/h5bp/Front-end-Developer-Interview-Questions"
      },
      {
        "topic": "General Questions",
        "question": "Explain some of the pros and cons for CSS animations versus JavaScript animations.",
        "source": "https://github.com/h5bp/Front-end-Developer-Interview-Questions"
      },
      {
        "topic": "General Questions",
        "question": "What does CORS stand for and what issue does it address?",
        "source": "https://github.com/h5bp/Front-end-Developer-Interview-Questions"
      },
      {
        "topic": "HTML Questions",
        "question": "What does a doctype do?",
        "source": "https://github.com/h5bp/Front-end-Developer-Interview-Questions"
      },
      {
        "topic": "HTML Questions",
        "question": "What's the difference between standards mode and quirks mode?",
        "source": "https://github.com/h5bp/Front-end-Developer-Interview-Questions"
      },
      {
        "topic": "HTML Questions",
        "question": "What's the difference between HTML and XHTML?",
        "source": "https://github.com/h5bp/Front-end-Developer-Interview-Questions"
      },
      {
        "topic": "HTML Questions",
        "question": "Are there any problems with serving pages as application/xhtml+xml?",
        "source": "https://github.com/h5bp/Front-end-Developer-Interview-Questions"
      },
      {
        "topic": "HTML Questions",
        "question": "How do you serve a page with content in multiple languages?",
        "source": "https://github.com/h5bp/Front-end-Developer-Interview-Questions"
      },
      {
        "topic": "HTML Questions",
        "question": "What kind of things must you be wary of when design or developing for multilingual sites?",
        "source": "https://github.com/h5bp/Front-end-Developer-Interview-Questions"
      },
      {
        "topic": "HTML Questions",
        "question": "What are data- attributes good for?",
        "source": "https://github.com/h5bp/Front-end-Developer-Interview-Questions"
      },
      {
        "topic": "HTML Questions",
        "question": "Consider HTML5 as an open web platform. What are the building blocks of HTML5?",
        "source": "https://github.com/h5bp/Front-end-Developer-Interview-Questions"
      },
      {
        "topic": "HTML Questions",
        "question": "Describe the difference between a cookie, sessionStorage and localStorage.",
        "source": "https://github.com/h5bp/Front-end-Developer-Interview-Questions"
      },
      {
        "topic": "HTML Questions",
        "question": "Describe the difference between <script>, <script async> and <script defer>.",
        "source": "https://github.com/h5bp/Front-end-Developer-Interview-Questions"
      },
      {
        "topic": "HTML Questions",
        "question": "Why is it generally a good idea to position CSS <link>s between <head></head> and JS <script>s just before </body>? Do you know any exceptions?",
        "source": "https://github.com/h5bp/Front-end-Developer-Interview-Questions"
      },
      {
        "topic": "HTML Questions",
        "question": "What is progressive rendering?",
        "source": "https://github.com/h5bp/Front-end-Developer-Interview-Questions"
      },
      {
        "topic": "HTML Questions",
        "question": "Have you used different HTML templating languages before?",
        "source": "https://github.com/h5bp/Front-end-Developer-Interview-Questions"
      },
      {
        "topic": "CSS Questions",
        "question": "What is the difference between classes and ID's in CSS?",
        "source": "https://github.com/h5bp/Front-end-Developer-Interview-Questions"
      },
      {
        "topic": "CSS Questions",
        "question": "What's the difference between \"resetting\" and \"normalizing\" CSS? Which would you choose, and why?",
        "source": "https://github.com/h5bp/Front-end-Developer-Interview-Questions"
      },
      {
        "topic": "CSS Questions",
        "question": "Describe Floats and how they work.",
        "source": "https://github.com/h5bp/Front-end-Developer-Interview-Questions"
      },
      {
        "topic": "CSS Questions",
        "question": "Describe z-index and how stacking context is formed.",
        "source": "https://github.com/h5bp/Front-end-Developer-Interview-Questions"
      },
      {
        "topic": "CSS Questions",
        "question": "Describe BFC(Block Formatting Context) and how it works.",
        "source": "https://github.com/h5bp/Front-end-Developer-Interview-Questions"
      },
      {
        "topic": "CSS Questions",
        "question": "What are the various clearing techniques and which is appropriate for what context?",
        "source": "https://github.com/h5bp/Front-end-Developer-Interview-Questions"
      },
      {
        "topic": "CSS Questions",
        "question": "Explain CSS sprites, and how you would implement them on a page or site.",
        "source": "https://github.com/h5bp/Front-end-Developer-Interview-Questions"
      },
      {
        "topic": "CSS Questions",
        "question": "What are your favourite image replacement techniques and which do you use when?",
        "source": "https://github.com/h5bp/Front-end-Developer-Interview-Questions"
      },
      {
        "topic": "CSS Questions",
        "question": "How would you approach fixing browser-specific styling issues?",
        "source": "https://github.com/h5bp/Front-end-Developer-Interview-Questions"
      },
      {
        "topic": "CSS Questions",
        "question": "How do you serve your pages for feature-constrained browsers?\n\n\nWhat techniques/processes do you use?",
        "source": "https://github.com/h5bp/Front-end-Developer-Interview-Questions"
      },
      {
        "topic": "CSS Questions",
        "question": "What techniques/processes do you use?",
        "source": "https://github.com/h5bp/Front-end-Developer-Interview-Questions"
      },
      {
        "topic": "CSS Questions",
        "question": "What are the different ways to visually hide content (and make it available only for screen readers)?",
        "source": "https://github.com/h5bp/Front-end-Developer-Interview-Questions"
      },
      {
        "topic": "CSS Questions",
        "question": "Have you ever used a grid system, and if so, what do you prefer?",
        "source": "https://github.com/h5bp/Front-end-Developer-Interview-Questions"
      },
      {
        "topic": "CSS Questions",
        "question": "Have you used or implemented media queries or mobile specific layouts/CSS?",
        "source": "https://github.com/h5bp/Front-end-Developer-Interview-Questions"
      },
      {
        "topic": "CSS Questions",
        "question": "Are you familiar with styling SVG?",
        "source": "https://github.com/h5bp/Front-end-Developer-Interview-Questions"
      },
      {
        "topic": "CSS Questions",
        "question": "How do you optimize your webpages for print?",
        "source": "https://github.com/h5bp/Front-end-Developer-Interview-Questions"
      },
      {
        "topic": "CSS Questions",
        "question": "What are some of the \"gotchas\" for writing efficient CSS?",
        "source": "https://github.com/h5bp/Front-end-Developer-Interview-Questions"
      },
      {
        "topic": "CSS Questions",
        "question": "What are the advantages/disadvantages of using CSS preprocessors?\n\n\nDescribe what you like and dislike about the CSS preprocessors you have used.",
        "source": "https://github.com/h5bp/Front-end-Developer-Interview-Questions"
      },
      {
        "topic": "CSS Questions",
        "question": "Describe what you like and dislike about the CSS preprocessors you have used.",
        "source": "https://github.com/h5bp/Front-end-Developer-Interview-Questions"
      },
      {
        "topic": "CSS Questions",
        "question": "How would you implement a web design comp that uses non-standard fonts?",
        "source": "https://github.com/h5bp/Front-end-Developer-Interview-Questions"
      },
      {
        "topic": "CSS Questions",
        "question": "Explain how a browser determines what elements match a CSS selector.",
        "source": "https://github.com/h5bp/Front-end-Developer-Interview-Questions"
      },
      {
        "topic": "CSS Questions",
        "question": "Describe pseudo-elements and discuss what they are used for.",
        "source": "https://github.com/h5bp/Front-end-Developer-Interview-Questions"
      },
      {
        "topic": "CSS Questions",
        "question": "Explain your understanding of the box model and how you would tell the browser in CSS to render your layout in different box models.",
        "source": "https://github.com/h5bp/Front-end-Developer-Interview-Questions"
      },
      {
        "topic": "CSS Questions",
        "question": "What does * { box-sizing: border-box; } do? What are its advantages?",
        "source": "https://github.com/h5bp/Front-end-Developer-Interview-Questions"
      },
      {
        "topic": "CSS Questions",
        "question": "List as many values for the display property that you can remember.",
        "source": "https://github.com/h5bp/Front-end-Developer-Interview-Questions"
      },
      {
        "topic": "CSS Questions",
        "question": "What's the difference between inline and inline-block?",
        "source": "https://github.com/h5bp/Front-end-Developer-Interview-Questions"
      },
      {
        "topic": "CSS Questions",
        "question": "What's the difference between a relative, fixed, absolute and statically positioned element?",
        "source": "https://github.com/h5bp/Front-end-Developer-Interview-Questions"
      },
      {
        "topic": "CSS Questions",
        "question": "The 'C' in CSS stands for Cascading.  How is priority determined in assigning styles (a few examples)?  How can you use this system to your advantage?",
        "source": "https://github.com/h5bp/Front-end-Developer-Interview-Questions"
      },
      {
        "topic": "CSS Questions",
        "question": "What existing CSS frameworks have you used locally, or in production? How would you change/improve them?",
        "source": "https://github.com/h5bp/Front-end-Developer-Interview-Questions"
      },
      {
        "topic": "CSS Questions",
        "question": "Have you played around with the new CSS Flexbox or Grid specs?",
        "source": "https://github.com/h5bp/Front-end-Developer-Interview-Questions"
      },
      {
        "topic": "CSS Questions",
        "question": "How is responsive design different from adaptive design?",
        "source": "https://github.com/h5bp/Front-end-Developer-Interview-Questions"
      },
      {
        "topic": "CSS Questions",
        "question": "Have you ever worked with retina graphics? If so, when and what techniques did you use?",
        "source": "https://github.com/h5bp/Front-end-Developer-Interview-Questions"
      },
      {
        "topic": "CSS Questions",
        "question": "Is there any reason you'd want to use translate() instead of absolute positioning, or vice-versa? And why?",
        "source": "https://github.com/h5bp/Front-end-Developer-Interview-Questions"
      },
      {
        "topic": "JS Questions",
        "question": "Explain event delegation",
        "source": "https://github.com/h5bp/Front-end-Developer-Interview-Questions"
      },
      {
        "topic": "JS Questions",
        "question": "Explain how this works in JavaScript",
        "source": "https://github.com/h5bp/Front-end-Developer-Interview-Questions"
      },
      {
        "topic": "JS Questions",
        "question": "Explain how prototypal inheritance works",
        "source": "https://github.com/h5bp/Front-end-Developer-Interview-Questions"
      },
      {
        "topic": "JS Questions",
        "question": "What do you think of AMD vs CommonJS?",
        "source": "https://github.com/h5bp/Front-end-Developer-Interview-Questions"
      },
      {
        "topic": "JS Questions",
        "question": "Explain why the following doesn't work as an IIFE: function foo(){ }();.\n\n\nWhat needs to be changed to properly make it an IIFE?",
        "source": "https://github.com/h5bp/Front-end-Developer-Interview-Questions"
      },
      {
        "topic": "JS Questions",
        "question": "What needs to be changed to properly make it an IIFE?",
        "source": "https://github.com/h5bp/Front-end-Developer-Interview-Questions"
      },
      {
        "topic": "JS Questions",
        "question": "What's the difference between a variable that is: null, undefined or undeclared?\n\n\nHow would you go about checking for any of these states?",
        "source": "https://github.com/h5bp/Front-end-Developer-Interview-Questions"
      },
      {
        "topic": "JS Questions",
        "question": "How would you go about checking for any of these states?",
        "source": "https://github.com/h5bp/Front-end-Developer-Interview-Questions"
      },
      {
        "topic": "JS Questions",
        "question": "What is a closure, and how/why would you use one?",
        "source": "https://github.com/h5bp/Front-end-Developer-Interview-Questions"
      },
      {
        "topic": "JS Questions",
        "question": "What's a typical use case for anonymous functions?",
        "source": "https://github.com/h5bp/Front-end-Developer-Interview-Questions"
      },
      {
        "topic": "JS Questions",
        "question": "How do you organize your code? (module pattern, classical inheritance?)",
        "source": "https://github.com/h5bp/Front-end-Developer-Interview-Questions"
      },
      {
        "topic": "JS Questions",
        "question": "What's the difference between host objects and native objects?",
        "source": "https://github.com/h5bp/Front-end-Developer-Interview-Questions"
      },
      {
        "topic": "JS Questions",
        "question": "Difference between: function Person(){}, var person = Person(), and var person = new Person()?",
        "source": "https://github.com/h5bp/Front-end-Developer-Interview-Questions"
      },
      {
        "topic": "JS Questions",
        "question": "What's the difference between .call and .apply?",
        "source": "https://github.com/h5bp/Front-end-Developer-Interview-Questions"
      },
      {
        "topic": "JS Questions",
        "question": "Explain Function.prototype.bind.",
        "source": "https://github.com/h5bp/Front-end-Developer-Interview-Questions"
      },
      {
        "topic": "JS Questions",
        "question": "When would you use document.write()?",
        "source": "https://github.com/h5bp/Front-end-Developer-Interview-Questions"
      },
      {
        "topic": "JS Questions",
        "question": "What's the difference between feature detection, feature inference, and using the UA string?",
        "source": "https://github.com/h5bp/Front-end-Developer-Interview-Questions"
      },
      {
        "topic": "JS Questions",
        "question": "Explain AJAX in as much detail as possible.",
        "source": "https://github.com/h5bp/Front-end-Developer-Interview-Questions"
      },
      {
        "topic": "JS Questions",
        "question": "Explain how JSONP works (and how it's not really AJAX).",
        "source": "https://github.com/h5bp/Front-end-Developer-Interview-Questions"
      },
      {
        "topic": "JS Questions",
        "question": "Have you ever used JavaScript templating?\n\n\nIf so, what libraries have you used?",
        "source": "https://github.com/h5bp/Front-end-Developer-Interview-Questions"
      },
      {
        "topic": "JS Questions",
        "question": "If so, what libraries have you used?",
        "source": "https://github.com/h5bp/Front-end-Developer-Interview-Questions"
      },
      {
        "topic": "JS Questions",
        "question": "Explain \"hoisting\".",
        "source": "https://github.com/h5bp/Front-end-Developer-Interview-Questions"
      },
      {
        "topic": "JS Questions",
        "question": "Describe event bubbling.",
        "source": "https://github.com/h5bp/Front-end-Developer-Interview-Questions"
      },
      {
        "topic": "JS Questions",
        "question": "What's the difference between an \"attribute\" and a \"property\"?",
        "source": "https://github.com/h5bp/Front-end-Developer-Interview-Questions"
      },
      {
        "topic": "JS Questions",
        "question": "Why is extending built-in JavaScript objects not a good idea?",
        "source": "https://github.com/h5bp/Front-end-Developer-Interview-Questions"
      },
      {
        "topic": "JS Questions",
        "question": "Difference between document load event and document ready event?",
        "source": "https://github.com/h5bp/Front-end-Developer-Interview-Questions"
      },
      {
        "topic": "JS Questions",
        "question": "What is the difference between == and ===?",
        "source": "https://github.com/h5bp/Front-end-Developer-Interview-Questions"
      },
      {
        "topic": "JS Questions",
        "question": "Explain the same-origin policy with regards to JavaScript.",
        "source": "https://github.com/h5bp/Front-end-Developer-Interview-Questions"
      },
      {
        "topic": "JS Questions",
        "question": "Make this work:",
        "source": "https://github.com/h5bp/Front-end-Developer-Interview-Questions"
      },
      {
        "topic": "Testing Questions",
        "question": "What are some advantages/disadvantages to testing your code?",
        "source": "https://github.com/h5bp/Front-end-Developer-Interview-Questions"
      },
      {
        "topic": "Testing Questions",
        "question": "What tools would you use to test your code's functionality?",
        "source": "https://github.com/h5bp/Front-end-Developer-Interview-Questions"
      },
      {
        "topic": "Testing Questions",
        "question": "What is the difference between a unit test and a functional/integration test?",
        "source": "https://github.com/h5bp/Front-end-Developer-Interview-Questions"
      },
      {
        "topic": "Testing Questions",
        "question": "What is the purpose of a code style linting tool?",
        "source": "https://github.com/h5bp/Front-end-Developer-Interview-Questions"
      },
      {
        "topic": "Performance Questions",
        "question": "What tools would you use to find a performance bug in your code?",
        "source": "https://github.com/h5bp/Front-end-Developer-Interview-Questions"
      },
      {
        "topic": "Performance Questions",
        "question": "What are some ways you may improve your website's scrolling performance?",
        "source": "https://github.com/h5bp/Front-end-Developer-Interview-Questions"
      },
      {
        "topic": "Performance Questions",
        "question": "Explain the difference between layout, painting and compositing.",
        "source": "https://github.com/h5bp/Front-end-Developer-Interview-Questions"
      },
      {
        "topic": "Network Questions",
        "question": "Traditionally, why has it been better to serve site assets from multiple domains?",
        "source": "https://github.com/h5bp/Front-end-Developer-Interview-Questions"
      },
      {
        "topic": "Network Questions",
        "question": "Do your best to describe the process from the time you type in a website's URL to it finishing loading on your screen.",
        "source": "https://github.com/h5bp/Front-end-Developer-Interview-Questions"
      },
      {
        "topic": "Network Questions",
        "question": "What are the differences between Long-Polling, Websockets and Server-Sent Events?",
        "source": "https://github.com/h5bp/Front-end-Developer-Interview-Questions"
      },
      {
        "topic": "Network Questions",
        "question": "Explain the following request and response headers:\n\n\nDiff. between Expires, Date, Age and If-Modified-...\nDo Not Track\nCache-Control\nTransfer-Encoding\nETag\nX-Frame-Options",
        "source": "https://github.com/h5bp/Front-end-Developer-Interview-Questions"
      },
      {
        "topic": "Network Questions",
        "question": "Diff. between Expires, Date, Age and If-Modified-...",
        "source": "https://github.com/h5bp/Front-end-Developer-Interview-Questions"
      },
      {
        "topic": "Network Questions",
        "question": "Do Not Track",
        "source": "https://github.com/h5bp/Front-end-Developer-Interview-Questions"
      },
      {
        "topic": "Network Questions",
        "question": "Cache-Control",
        "source": "https://github.com/h5bp/Front-end-Developer-Interview-Questions"
      },
      {
        "topic": "Network Questions",
        "question": "Transfer-Encoding",
        "source": "https://github.com/h5bp/Front-end-Developer-Interview-Questions"
      },
      {
        "topic": "Network Questions",
        "question": "ETag",
        "source": "https://github.com/h5bp/Front-end-Developer-Interview-Questions"
      },
      {
        "topic": "Network Questions",
        "question": "X-Frame-Options",
        "source": "https://github.com/h5bp/Front-end-Developer-Interview-Questions"
      },
      {
        "topic": "Network Questions",
        "question": "What are HTTP actions? List all HTTP actions that you know, and explain them.",
        "source": "https://github.com/h5bp/Front-end-Developer-Interview-Questions"
      },
      {
        "topic": "Fun Questions",
        "question": "What's a cool project that you've recently worked on?",
        "source": "https://github.com/h5bp/Front-end-Developer-Interview-Questions"
      },
      {
        "topic": "Fun Questions",
        "question": "What are some things you like about the developer tools you use?",
        "source": "https://github.com/h5bp/Front-end-Developer-Interview-Questions"
      },
      {
        "topic": "Fun Questions",
        "question": "Do you have any pet projects? What kind?",
        "source": "https://github.com/h5bp/Front-end-Developer-Interview-Questions"
      },
      {
        "topic": "Fun Questions",
        "question": "What's your favorite feature of Internet Explorer?",
        "source": "https://github.com/h5bp/Front-end-Developer-Interview-Questions"
      },
      {
        "topic": "Fun Questions",
        "question": "How do you like your coffee?",
        "source": "https://github.com/h5bp/Front-end-Developer-Interview-Questions"
      }
    ]
  }
]
